{
    "key": "group_5aa11ef854e46",
    "title": "Featured Video",
    "fields": [
        {
            "key": "field_5aa11efd60909",
            "label": "Featured Video",
            "name": "featured_video",
            "type": "oembed",
            "value": null,
            "instructions": "Set featured video (will replace any Featured Image at post top).",
            "required": 0,
            "conditional_logic": 0,
            "wrapper": {
                "width": "",
                "class": "",
                "id": ""
            },
            "width": 250,
            "height": ""
        }
    ],
    "location": [
        [
            {
                "param": "post_type",
                "operator": "==",
                "value": "post"
            }
        ],
        [
            {
                "param": "post_type",
                "operator": "==",
                "value": "page"
            }
        ]
    ],
    "menu_order": 100,
    "position": "side",
    "style": "default",
    "label_placement": "top",
    "instruction_placement": "label",
    "hide_on_screen": "",
    "active": 1,
    "description": "",
    "modified": 1520508876
}